"schoolYear":"2024","paginationData":{"pageSize":1,"pageNumber":32,"totalCount":52,"pageActionLink":null,"totalPages":52,"hasPreviousPage":true,"hasNextPage":true,"pageNumberOutOfRange":false},"scheduleModel":{"beginDate":"2025-04-07T00:00:00.000+05:00","endDate":"2025-04-12T00:00:00.000+05:00","weekNumber":32,"days":[{"date":"2025-04-07T00:00:00.000+05:00","isWeekend":false,"isCelebration":false,"dayOfWeekName":"Понедельник","scheduleDayLessonModels":[{"id":"0195d6d0-8dfe-7170-819e-37ece5f4fc63","lessonid":"0195d6d0-8dfe-7170-819e-37ece5f4fc63","lessonName":"Физическая культура","groupName":null,"room":"Нет кабинета","number":1,"beginHour":8,"beginMinute":0,"endHour":8,"endMinute":30},{"id":"01943652-637c-7487-a29e-086ac72ac210","lessonid":"01943652-637c-7487-a29e-086ac72ac210","lessonName":"Английский язык","groupName":"Группа 2_Анг","room":"Нет кабинета.","number":2,"beginHour":8,"beginMinute":40,"endHour":9,"endMinute":20},{"id":"01943728-32ba-77e3-91b9-de4cb9801e8c","lessonid":"01943728-32ba-77e3-91b9-de4cb9801e8c","lessonName":"История","groupName":null,"room":"Нет кабинета","number":3,"beginHour":9,"beginMinute":30,"endHour":10,"endMinute":10},{"id":"01943652-637c-7489-81e5-e67ffbc54544","lessonid":"01943652-637c-7489-81e5-e67ffbc54544","lessonName":"Физика","groupName":null,"room":"19","number":4,"beginHour":10,"beginMinute":25,"endHour":11,"endMinute":5},{"id":"01943652-637c-748a-9f65-0d6ab5a9f3c5","lessonid":"01943652-637c-748a-9f65-0d6ab5a9f3c5","lessonName":"Информатика","groupName":"Группа 1_ИНФ","room":"13","number":5,"beginHour":11,"beginMinute":20,"endHour":12,"endMinute":0},{"id":"01943652-637c-748c-b395-768611d12ca3","lessonid":"01943652-637c-748c-b395-768611d12ca3","lessonName":"Обществознание","groupName":null,"room":"Нет кабинета","number":6,"beginHour":12,"beginMinute":10,"endHour":12,"endMinute":50}]},{"date":"2025-04-08T00:00:00.000+05:00","isWeekend":false,"isCelebration":false,"dayOfWeekName":"Вторник","scheduleDayLessonModels":[{"id":"01943652-637c-748f-97b4-6263a14795af","lessonid":"01943652-637c-748f-97b4-6263a14795af","lessonName":"Современная экономика","groupName":null,"room":"Нет кабинета","number":1,"beginHour":8,"beginMinute":0,"endHour":8,"endMinute":40},{"id":"01943652-637c-7491-853f-ebef9103de76","lessonid":"01943652-637c-7491-853f-ebef9103de76","lessonName":"Английский язык","groupName":"Группа 2_Анг","room":"Нет кабинета.","number":2,"beginHour":8,"beginMinute":50,"endHour":9,"endMinute":30},{"id":"01943652-637c-7492-b45e-b65921d92eb3","lessonid":"01943652-637c-7492-b45e-b65921d92eb3","lessonName":"Обществознание","groupName":null,"room":null,"number":3,"beginHour":9,"beginMinute":40,"endHour":10,"endMinute":20},{"id":"01943652-637c-748d-acc6-85f22d45da8e","lessonid":"01943652-637c-748d-acc6-85f22d45da8e","lessonName":"Алгебра","groupName":null,"room":"Нет кабинета","number":4,"beginHour":10,"beginMinute":40,"endHour":11,"endMinute":20},{"id":"01943652-637c-748e-b0e4-bfa7655e2692","lessonid":"01943652-637c-748e-b0e4-bfa7655e2692","lessonName":"Алгебра","groupName":null,"room":"Нет кабинета","number":5,"beginHour":null,"beginMinute":null,"endHour":null,"endMinute":null},{"id":"01943652-637c-7493-ae59-18b8342c3dd3","lessonid":"01943652-637c-7493-ae59-18b8342c3dd3","lessonName":"Литература","groupName":null,"room":"Нет кабинета.","number":6,"beginHour":12,"beginMinute":25,"endHour":13,"endMinute":5},{"id":"01943728-9b84-716f-bfaf-839251a50346","lessonid":"01943728-9b84-716f-bfaf-839251a50346","lessonName":"Химия","groupName":null,"room":"Нет кабинета.","number":7,"beginHour":13,"beginMinute":10,"endHour":13,"endMinute":50}]},{"date":"2025-04-09T00:00:00.000+05:00","isWeekend":false,"isCelebration":false,"dayOfWeekName":"Среда","scheduleDayLessonModels":[{"id":"01943652-637c-7495-ac70-30d8c61580aa","lessonid":"01943652-637c-7495-ac70-30d8c61580aa","lessonName":"Литература","groupName":null,"room":"Нет кабинета.","number":1,"beginHour":8,"beginMinute":0,"endHour":8,"endMinute":40},{"id":"01943652-637c-7496-b5e3-3e0d1e816dae","lessonid":"01943652-637c-7496-b5e3-3e0d1e816dae","lessonName":"Русский язык","groupName":null,"room":"Нет кабинета.","number":2,"beginHour":8,"beginMinute":50,"endHour":9,"endMinute":30},{"id":"01943652-637c-7497-8115-119e203a2dd2","lessonid":"01943652-637c-7497-8115-119e203a2dd2","lessonName":"Информатика","groupName":"Группа 1_ИНФ","room":"13","number":3,"beginHour":9,"beginMinute":40,"endHour":10,"endMinute":20},{"id":"01943652-637c-7499-bcbf-b20e83c857ea","lessonid":"01943652-637c-7499-bcbf-b20e83c857ea","lessonName":"Биология","groupName":null,"room":"Нет кабинета","number":4,"beginHour":10,"beginMinute":40,"endHour":11,"endMinute":20},{"id":"01943652-637c-749a-ba25-3d37e8091c2e","lessonid":"01943652-637c-749a-ba25-3d37e8091c2e","lessonName":"Физика","groupName":null,"room":"19","number":5,"beginHour":11,"beginMinute":35,"endHour":12,"endMinute":15},{"id":"01943652-637c-749b-888d-c91cd3074684","lessonid":"01943652-637c-749b-888d-c91cd3074684","lessonName":"География","groupName":null,"room":"Нет кабинета","number":6,"beginHour":12,"beginMinute":25,"endHour":13,"endMinute":5},{"id":"01943652-637c-749d-9c1b-9666bf3244cf","lessonid":"01943652-637c-749d-9c1b-9666bf3244cf","lessonName":"Английский язык","groupName":"Группа 2_Анг","room":"Нет кабинета.","number":7,"beginHour":13,"beginMinute":10,"endHour":13,"endMinute":50}]},{"date":"2025-04-10T00:00:00.000+05:00","isWeekend":false,"isCelebration":false,"dayOfWeekName":"Четверг","scheduleDayLessonModels":[{"id":"0194372e-871b-72b5-9216-41d283dfd0d0","lessonid":"0194372e-871b-72b5-9216-41d283dfd0d0","lessonName":"Русский язык","groupName":null,"room":"Нет кабинета","number":1,"beginHour":8,"beginMinute":0,"endHour":8,"endMinute":40},{"id":"01943652-637c-74a1-ab21-fc796638ed2c","lessonid":"01943652-637c-74a1-ab21-fc796638ed2c","lessonName":"Обществознание","groupName":null,"room":"Нет кабинета","number":2,"beginHour":8,"beginMinute":50,"endHour":9,"endMinute":30},{"id":"0194372e-871b-72b6-884a-534ad9693096","lessonid":"0194372e-871b-72b6-884a-534ad9693096","lessonName":"Геометрия","groupName":null,"room":"24","number":3,"beginHour":9,"beginMinute":40,"endHour":10,"endMinute":20},{"id":"0194372e-871b-72b7-a0b0-008dc394855e","lessonid":"0194372e-871b-72b7-a0b0-008dc394855e","lessonName":"Геометрия","groupName":null,"room":"24","number":4,"beginHour":10,"beginMinute":40,"endHour":11,"endMinute":20},{"id":"01943652-637c-74a2-aa6b-ceea4286c93f","lessonid":"01943652-637c-74a2-aa6b-ceea4286c93f","lessonName":"Информатика","groupName":"Группа 1_ИНФ","room":"13","number":5,"beginHour":11,"beginMinute":35,"endHour":12,"endMinute":15},{"id":"0195d68f-00e0-739a-b451-00e0e195cc4d","lessonid":"0195d68f-00e0-739a-b451-00e0e195cc4d","lessonName":"Основы безопасности и защита Родины","groupName":null,"room":"Нет кабинета","number":6,"beginHour":12,"beginMinute":25,"endHour":13,"endMinute":5}]},{"date":"2025-04-11T00:00:00.000+05:00","isWeekend":false,"isCelebration":false,"dayOfWeekName":"Пятница","scheduleDayLessonModels":[{"id":"01943730-65e3-7727-a452-7602ec61a0b1","lessonid":"01943730-65e3-7727-a452-7602ec61a0b1","lessonName":"Литература","groupName":null,"room":"Нет кабинета","number":1,"beginHour":8,"beginMinute":0,"endHour":8,"endMinute":40},{"id":"0194372a-5b31-7168-87de-e4d1f7c01bb3","lessonid":"0194372a-5b31-7168-87de-e4d1f7c01bb3","lessonName":"История","groupName":null,"room":"Нет кабинета","number":2,"beginHour":8,"beginMinute":50,"endHour":9,"endMinute":30},{"id":"0194372a-5b31-716a-b31d-52fead8a013e","lessonid":"0194372a-5b31-716a-b31d-52fead8a013e","lessonName":"Информатика","groupName":"Группа 1_ИНФ","room":"13","number":3,"beginHour":9,"beginMinute":40,"endHour":10,"endMinute":20},{"id":"0195d6d0-bb5f-74d4-b05f-b6fbf0ea964c","lessonid":"0195d6d0-bb5f-74d4-b05f-b6fbf0ea964c","lessonName":"Физическая культура","groupName":null,"room":"Нет кабинета","number":4,"beginHour":10,"beginMinute":40,"endHour":11,"endMinute":20},{"id":"01943730-65e3-7728-b063-32996572d8af","lessonid":"01943730-65e3-7728-b063-32996572d8af","lessonName":"Вероятность и статистика","groupName":null,"room":"24","number":5,"beginHour":11,"beginMinute":35,"endHour":12,"endMinute":15},{"id":"0194372a-5b31-716c-903b-db603f58dff1","lessonid":"0194372a-5b31-716c-903b-db603f58dff1","lessonName":"Индивидуальный проект","groupName":null,"room":"Нет кабинета","number":6,"beginHour":12,"beginMinute":25,"endHour":13,"endMinute":5},{"id":"0194372a-5b31-716d-85b9-0409122daf84","lessonid":"0194372a-5b31-716d-85b9-0409122daf84","lessonName":"Обществознание","groupName":null,"room":"Нет кабинета","number":7,"beginHour":13,"beginMinute":10,"endHour":13,"endMinute":50}]},{"date":"2025-04-12T00:00:00.000+05:00","isWeekend":false,"isCelebration":false,"dayOfWeekName":"Суббота","scheduleDayLessonModels":[]}]}}